{
	"account_nickname":"ex",
	"account_identifier":"7dec7f53-624c-4f0a-92bf-6c34ed6eeb0e",
	"account_protocol":"notepad",
	"account_protocol_identifier":"ddfb1220-4d66-4906-8866-63afd28a6e25",
	"saved_notes":[{
		"note_title":"a",
		"note_topic":"owo test time",
		"note_messages":["hello this is","the default data","for a notepad instance"]
	},{
		"note_title":"abc",
		"note_topic":"owo test time",
		"note_messages":["hello this is","the default data","for a notepad instance","saaaaaa","ldskrfgnsdlfk\n"]
	},{
		"note_title":"abc2",
		"note_topic":"owo test time",
		"note_messages":["hello this is","the default data","for a notepad instance"]
	},{
		"note_title":"abc3",
		"note_topic":"owo test time",
		"note_messages":["hello this is","the default data","for a notepad instance","adfgasdfgadfgsdfhs"]
	}]
}